Machine 1 Gantt Chart:
Job 1 - Operation 4: Starts at 409 and ends at 462
Job 2 - Operation 5: Starts at 905 and ends at 926
Job 3 - Operation 2: Starts at 244 and ends at 256
Job 4 - Operation 4: Starts at 598 and ends at 653
Job 5 - Operation 5: Starts at 776 and ends at 859
Job 6 - Operation 3: Starts at 462 and ends at 554
Job 7 - Operation 1: Starts at 316 and ends at 409
Job 8 - Operation 1: Starts at 256 and ends at 316
Job 9 - Operation 4: Starts at 554 and ends at 598
Job 10 - Operation 1: Starts at 0 and ends at 96
Job 11 - Operation 3: Starts at 681 and ends at 776
Job 12 - Operation 1: Starts at 183 and ends at 244
Job 13 - Operation 5: Starts at 859 and ends at 905
Job 14 - Operation 3: Starts at 653 and ends at 681
Job 15 - Operation 1: Starts at 96 and ends at 183
-----------------------------------------
Machine 2 Gantt Chart:
Job 1 - Operation 1: Starts at 0 and ends at 21
Job 2 - Operation 3: Starts at 437 and ends at 508
Job 3 - Operation 3: Starts at 623 and ends at 665
Job 4 - Operation 2: Starts at 360 and ends at 437
Job 5 - Operation 4: Starts at 508 and ends at 527
Job 6 - Operation 2: Starts at 74 and ends at 128
Job 7 - Operation 3: Starts at 536 and ends at 623
Job 8 - Operation 2: Starts at 319 and ends at 360
Job 9 - Operation 5: Starts at 665 and ends at 714
Job 10 - Operation 4: Starts at 714 and ends at 789
Job 11 - Operation 5: Starts at 852 and ends at 859
Job 12 - Operation 4: Starts at 527 and ends at 536
Job 13 - Operation 3: Starts at 228 and ends at 319
Job 14 - Operation 2: Starts at 128 and ends at 180
Job 15 - Operation 2: Starts at 183 and ends at 228
-----------------------------------------
Machine 3 Gantt Chart:
Job 1 - Operation 2: Starts at 172 and ends at 206
Job 2 - Operation 4: Starts at 719 and ends at 745
Job 3 - Operation 1: Starts at 0 and ends at 31
Job 4 - Operation 5: Starts at 653 and ends at 719
Job 5 - Operation 3: Starts at 400 and ends at 464
Job 6 - Operation 1: Starts at 31 and ends at 74
Job 7 - Operation 5: Starts at 772 and ends at 859
Job 8 - Operation 3: Starts at 362 and ends at 400
Job 9 - Operation 1: Starts at 74 and ends at 172
Job 10 - Operation 5: Starts at 859 and ends at 902
Job 11 - Operation 2: Starts at 523 and ends at 558
Job 12 - Operation 3: Starts at 267 and ends at 362
Job 13 - Operation 4: Starts at 464 and ends at 523
Job 14 - Operation 4: Starts at 745 and ends at 772
Job 15 - Operation 3: Starts at 228 and ends at 267
-----------------------------------------
Machine 4 Gantt Chart:
Job 1 - Operation 5: Starts at 567 and ends at 622
Job 2 - Operation 1: Starts at 0 and ends at 52
Job 3 - Operation 4: Starts at 719 and ends at 758
Job 4 - Operation 1: Starts at 197 and ends at 274
Job 5 - Operation 2: Starts at 274 and ends at 308
Job 6 - Operation 4: Starts at 657 and ends at 719
Job 7 - Operation 2: Starts at 409 and ends at 478
Job 8 - Operation 5: Starts at 902 and ends at 926
Job 9 - Operation 2: Starts at 180 and ends at 197
Job 10 - Operation 3: Starts at 488 and ends at 567
Job 11 - Operation 4: Starts at 776 and ends at 852
Job 12 - Operation 5: Starts at 622 and ends at 657
Job 13 - Operation 2: Starts at 164 and ends at 180
Job 14 - Operation 5: Starts at 852 and ends at 902
Job 15 - Operation 5: Starts at 358 and ends at 399
-----------------------------------------
Machine 5 Gantt Chart:
Job 1 - Operation 3: Starts at 254 and ends at 349
Job 2 - Operation 2: Starts at 52 and ends at 68
Job 3 - Operation 5: Starts at 806 and ends at 904
Job 4 - Operation 3: Starts at 488 and ends at 567
Job 5 - Operation 1: Starts at 68 and ends at 105
Job 6 - Operation 5: Starts at 727 and ends at 806
Job 7 - Operation 4: Starts at 650 and ends at 727
Job 8 - Operation 4: Starts at 567 and ends at 650
Job 9 - Operation 3: Starts at 386 and ends at 411
Job 10 - Operation 2: Starts at 411 and ends at 488
Job 11 - Operation 1: Starts at 358 and ends at 386
Job 12 - Operation 2: Starts at 244 and ends at 254
Job 13 - Operation 1: Starts at 105 and ends at 164
Job 14 - Operation 1: Starts at 0 and ends at 43
Job 15 - Operation 4: Starts at 349 and ends at 358
-----------------------------------------
