Machine 1 Gantt Chart:
Job 1 - Operation 7: Starts at 592 and ends at 645
Job 2 - Operation 5: Starts at 360 and ends at 372
Job 3 - Operation 9: Starts at 759 and ends at 842
Job 4 - Operation 8: Starts at 499 and ends at 592
Job 5 - Operation 2: Starts at 411 and ends at 455
Job 6 - Operation 7: Starts at 219 and ends at 314
Job 7 - Operation 3: Starts at 314 and ends at 360
Job 8 - Operation 2: Starts at 45 and ends at 132
Job 9 - Operation 10: Starts at 842 and ends at 920
Job 10 - Operation 6: Starts at 645 and ends at 714
-----------------------------------------
Machine 2 Gantt Chart:
Job 1 - Operation 1: Starts at 45 and ends at 66
Job 2 - Operation 7: Starts at 458 and ends at 500
Job 3 - Operation 4: Starts at 284 and ends at 303
Job 4 - Operation 1: Starts at 66 and ends at 153
Job 5 - Operation 6: Starts at 617 and ends at 666
Job 6 - Operation 9: Starts at 451 and ends at 458
Job 7 - Operation 4: Starts at 360 and ends at 451
Job 8 - Operation 1: Starts at 0 and ends at 45
Job 9 - Operation 7: Starts at 256 and ends at 284
Job 10 - Operation 9: Starts at 837 and ends at 911
-----------------------------------------
Machine 3 Gantt Chart:
Job 1 - Operation 6: Starts at 505 and ends at 539
Job 2 - Operation 2: Starts at 136 and ends at 167
Job 3 - Operation 2: Starts at 72 and ends at 136
Job 4 - Operation 3: Starts at 226 and ends at 313
Job 5 - Operation 1: Starts at 313 and ends at 411
Job 6 - Operation 1: Starts at 0 and ends at 35
Job 7 - Operation 2: Starts at 167 and ends at 226
Job 8 - Operation 9: Starts at 737 and ends at 776
Job 9 - Operation 2: Starts at 35 and ends at 72
Job 10 - Operation 3: Starts at 411 and ends at 505
-----------------------------------------
Machine 4 Gantt Chart:
Job 1 - Operation 9: Starts at 666 and ends at 721
Job 2 - Operation 10: Starts at 721 and ends at 760
Job 3 - Operation 1: Starts at 0 and ends at 34
Job 4 - Operation 2: Starts at 153 and ends at 222
Job 5 - Operation 9: Starts at 839 and ends at 856
Job 6 - Operation 2: Starts at 35 and ends at 111
Job 7 - Operation 1: Starts at 111 and ends at 127
Job 8 - Operation 3: Starts at 248 and ends at 289
Job 9 - Operation 5: Starts at 222 and ends at 248
Job 10 - Operation 5: Starts at 601 and ends at 628
-----------------------------------------
Machine 5 Gantt Chart:
Job 1 - Operation 8: Starts at 645 and ends at 666
Job 2 - Operation 1: Starts at 33 and ends at 88
Job 3 - Operation 5: Starts at 309 and ends at 401
Job 4 - Operation 10: Starts at 762 and ends at 822
Job 5 - Operation 7: Starts at 666 and ends at 762
Job 6 - Operation 5: Starts at 149 and ends at 210
Job 7 - Operation 9: Starts at 822 and ends at 850
Job 8 - Operation 4: Starts at 289 and ends at 309
Job 9 - Operation 1: Starts at 0 and ends at 33
Job 10 - Operation 4: Starts at 505 and ends at 601
-----------------------------------------
Machine 6 Gantt Chart:
Job 1 - Operation 10: Starts at 737 and ends at 832
Job 2 - Operation 3: Starts at 172 and ends at 270
Job 3 - Operation 10: Starts at 842 and ends at 879
Job 4 - Operation 9: Starts at 592 and ends at 669
Job 5 - Operation 3: Starts at 455 and ends at 480
Job 6 - Operation 3: Starts at 111 and ends at 139
Job 7 - Operation 8: Starts at 669 and ends at 728
Job 8 - Operation 8: Starts at 728 and ends at 737
Job 9 - Operation 4: Starts at 139 and ends at 172
Job 10 - Operation 10: Starts at 911 and ends at 995
-----------------------------------------
Machine 7 Gantt Chart:
Job 1 - Operation 2: Starts at 66 and ends at 137
Job 2 - Operation 9: Starts at 628 and ends at 705
Job 3 - Operation 8: Starts at 705 and ends at 759
Job 4 - Operation 7: Starts at 458 and ends at 499
Job 5 - Operation 4: Starts at 499 and ends at 574
Job 6 - Operation 6: Starts at 210 and ends at 219
Job 7 - Operation 7: Starts at 574 and ends at 626
Job 8 - Operation 5: Starts at 373 and ends at 427
Job 9 - Operation 8: Starts at 284 and ends at 373
Job 10 - Operation 8: Starts at 759 and ends at 837
-----------------------------------------
Machine 8 Gantt Chart:
Job 1 - Operation 5: Starts at 438 and ends at 464
Job 2 - Operation 6: Starts at 372 and ends at 438
Job 3 - Operation 7: Starts at 617 and ends at 660
Job 4 - Operation 4: Starts at 313 and ends at 351
Job 5 - Operation 5: Starts at 574 and ends at 617
Job 6 - Operation 10: Starts at 464 and ends at 559
Job 7 - Operation 10: Starts at 850 and ends at 877
Job 8 - Operation 10: Starts at 776 and ends at 847
Job 9 - Operation 6: Starts at 248 and ends at 256
Job 10 - Operation 7: Starts at 714 and ends at 759
-----------------------------------------
Machine 9 Gantt Chart:
Job 1 - Operation 4: Starts at 375 and ends at 427
Job 2 - Operation 8: Starts at 551 and ends at 628
Job 3 - Operation 3: Starts at 138 and ends at 200
Job 4 - Operation 5: Starts at 351 and ends at 375
Job 5 - Operation 10: Starts at 856 and ends at 935
Job 6 - Operation 8: Starts at 314 and ends at 349
Job 7 - Operation 6: Starts at 501 and ends at 551
Job 8 - Operation 7: Starts at 665 and ends at 679
Job 9 - Operation 3: Starts at 72 and ends at 138
Job 10 - Operation 1: Starts at 0 and ends at 69
-----------------------------------------
Machine 10 Gantt Chart:
Job 1 - Operation 3: Starts at 349 and ends at 365
Job 2 - Operation 4: Starts at 270 and ends at 349
Job 3 - Operation 6: Starts at 501 and ends at 580
Job 4 - Operation 6: Starts at 375 and ends at 458
Job 5 - Operation 8: Starts at 762 and ends at 839
Job 6 - Operation 4: Starts at 139 and ends at 149
Job 7 - Operation 5: Starts at 458 and ends at 501
Job 8 - Operation 6: Starts at 622 and ends at 665
Job 9 - Operation 9: Starts at 580 and ends at 622
Job 10 - Operation 2: Starts at 149 and ends at 230
-----------------------------------------
