Machine 1 Gantt Chart:
Job 1 - Operation 2: Starts at 231 and ends at 318
Job 2 - Operation 5: Starts at 432 and ends at 529
Job 3 - Operation 4: Starts at 141 and ends at 169
Job 4 - Operation 8: Starts at 676 and ends at 729
Job 5 - Operation 6: Starts at 384 and ends at 432
Job 6 - Operation 3: Starts at 169 and ends at 231
Job 7 - Operation 3: Starts at 318 and ends at 359
Job 8 - Operation 5: Starts at 529 and ends at 613
Job 9 - Operation 2: Starts at 77 and ends at 141
Job 10 - Operation 10: Starts at 729 and ends at 788
-----------------------------------------
Machine 2 Gantt Chart:
Job 1 - Operation 7: Starts at 557 and ends at 629
Job 2 - Operation 10: Starts at 853 and ends at 899
Job 3 - Operation 2: Starts at 77 and ends at 101
Job 4 - Operation 2: Starts at 174 and ends at 211
Job 5 - Operation 9: Starts at 629 and ends at 669
Job 6 - Operation 1: Starts at 0 and ends at 66
Job 7 - Operation 1: Starts at 101 and ends at 174
Job 8 - Operation 4: Starts at 425 and ends at 503
Job 9 - Operation 1: Starts at 66 and ends at 77
Job 10 - Operation 5: Starts at 360 and ends at 425
-----------------------------------------
Machine 3 Gantt Chart:
Job 1 - Operation 9: Starts at 805 and ends at 871
Job 2 - Operation 8: Starts at 694 and ends at 715
Job 3 - Operation 10: Starts at 621 and ends at 694
Job 4 - Operation 6: Starts at 609 and ends at 621
Job 5 - Operation 2: Starts at 83 and ends at 132
Job 6 - Operation 4: Starts at 256 and ends at 340
Job 7 - Operation 4: Starts at 359 and ends at 412
Job 8 - Operation 9: Starts at 764 and ends at 805
Job 9 - Operation 10: Starts at 904 and ends at 921
Job 10 - Operation 3: Starts at 161 and ends at 256
-----------------------------------------
Machine 4 Gantt Chart:
Job 1 - Operation 4: Starts at 366 and ends at 426
Job 2 - Operation 1: Starts at 83 and ends at 103
Job 3 - Operation 8: Starts at 461 and ends at 486
Job 4 - Operation 4: Starts at 489 and ends at 560
Job 5 - Operation 1: Starts at 0 and ends at 83
Job 6 - Operation 10: Starts at 560 and ends at 645
Job 7 - Operation 2: Starts at 187 and ends at 267
Job 8 - Operation 2: Starts at 103 and ends at 187
Job 9 - Operation 5: Starts at 451 and ends at 461
Job 10 - Operation 4: Starts at 267 and ends at 360
-----------------------------------------
Machine 5 Gantt Chart:
Job 1 - Operation 3: Starts at 318 and ends at 366
Job 2 - Operation 7: Starts at 579 and ends at 638
Job 3 - Operation 1: Starts at 0 and ends at 45
Job 4 - Operation 3: Starts at 451 and ends at 489
Job 5 - Operation 7: Starts at 489 and ends at 579
Job 6 - Operation 2: Starts at 105 and ends at 130
Job 7 - Operation 8: Starts at 684 and ends at 698
Job 8 - Operation 10: Starts at 805 and ends at 868
Job 9 - Operation 4: Starts at 366 and ends at 451
Job 10 - Operation 1: Starts at 45 and ends at 105
-----------------------------------------
Machine 6 Gantt Chart:
Job 1 - Operation 8: Starts at 705 and ends at 800
Job 2 - Operation 4: Starts at 189 and ends at 244
Job 3 - Operation 7: Starts at 330 and ends at 353
Job 4 - Operation 10: Starts at 888 and ends at 917
Job 5 - Operation 8: Starts at 579 and ends at 586
Job 6 - Operation 9: Starts at 522 and ends at 541
Job 7 - Operation 10: Starts at 800 and ends at 888
Job 8 - Operation 1: Starts at 0 and ends at 64
Job 9 - Operation 6: Starts at 586 and ends at 659
Job 10 - Operation 9: Starts at 659 and ends at 705
-----------------------------------------
Machine 7 Gantt Chart:
Job 1 - Operation 1: Starts at 0 and ends at 54
Job 2 - Operation 3: Starts at 155 and ends at 189
Job 3 - Operation 6: Starts at 252 and ends at 330
Job 4 - Operation 7: Starts at 621 and ends at 676
Job 5 - Operation 3: Starts at 132 and ends at 155
Job 6 - Operation 6: Starts at 353 and ends at 417
Job 7 - Operation 9: Starts at 698 and ends at 765
Job 8 - Operation 3: Starts at 189 and ends at 235
Job 9 - Operation 9: Starts at 807 and ends at 904
Job 10 - Operation 6: Starts at 425 and ends at 510
-----------------------------------------
Machine 8 Gantt Chart:
Job 1 - Operation 5: Starts at 463 and ends at 502
Job 2 - Operation 9: Starts at 816 and ends at 853
Job 3 - Operation 5: Starts at 169 and ends at 252
Job 4 - Operation 9: Starts at 729 and ends at 816
Job 5 - Operation 5: Starts at 319 and ends at 384
Job 6 - Operation 7: Starts at 417 and ends at 463
Job 7 - Operation 6: Starts at 553 and ends at 610
Job 8 - Operation 6: Starts at 613 and ends at 639
Job 9 - Operation 3: Starts at 252 and ends at 319
Job 10 - Operation 7: Starts at 510 and ends at 553
-----------------------------------------
Machine 9 Gantt Chart:
Job 1 - Operation 6: Starts at 522 and ends at 557
Job 2 - Operation 6: Starts at 557 and ends at 576
Job 3 - Operation 3: Starts at 101 and ends at 129
Job 4 - Operation 5: Starts at 576 and ends at 609
Job 5 - Operation 10: Starts at 807 and ends at 824
Job 6 - Operation 8: Starts at 463 and ends at 522
Job 7 - Operation 7: Starts at 610 and ends at 684
Job 8 - Operation 7: Starts at 684 and ends at 712
Job 9 - Operation 8: Starts at 712 and ends at 807
Job 10 - Operation 2: Starts at 129 and ends at 161
-----------------------------------------
Machine 10 Gantt Chart:
Job 1 - Operation 10: Starts at 871 and ends at 876
Job 2 - Operation 2: Starts at 103 and ends at 149
Job 3 - Operation 9: Starts at 486 and ends at 491
Job 4 - Operation 1: Starts at 0 and ends at 12
Job 5 - Operation 4: Starts at 155 and ends at 182
Job 6 - Operation 5: Starts at 340 and ends at 353
Job 7 - Operation 5: Starts at 412 and ends at 459
Job 8 - Operation 8: Starts at 712 and ends at 764
Job 9 - Operation 7: Starts at 659 and ends at 697
Job 10 - Operation 8: Starts at 553 and ends at 638
-----------------------------------------
