Machine 1 Gantt Chart:
Job 1 - Operation 7: Starts at 424 and ends at 430
Job 2 - Operation 8: Starts at 590 and ends at 667
Job 3 - Operation 3: Starts at 204 and ends at 244
Job 4 - Operation 4: Starts at 445 and ends at 453
Job 5 - Operation 1: Starts at 21 and ends at 112
Job 6 - Operation 7: Starts at 726 and ends at 771
Job 7 - Operation 9: Starts at 816 and ends at 844
Job 8 - Operation 8: Starts at 667 and ends at 726
Job 9 - Operation 3: Starts at 112 and ends at 200
Job 10 - Operation 1: Starts at 0 and ends at 21
-----------------------------------------
Machine 2 Gantt Chart:
Job 1 - Operation 2: Starts at 9 and ends at 90
Job 2 - Operation 5: Starts at 440 and ends at 486
Job 3 - Operation 5: Starts at 486 and ends at 530
Job 4 - Operation 8: Starts at 662 and ends at 742
Job 5 - Operation 4: Starts at 394 and ends at 411
Job 6 - Operation 5: Starts at 411 and ends at 440
Job 7 - Operation 3: Starts at 296 and ends at 394
Job 8 - Operation 1: Starts at 90 and ends at 185
Job 9 - Operation 5: Starts at 289 and ends at 296
Job 10 - Operation 10: Starts at 822 and ends at 906
-----------------------------------------
Machine 3 Gantt Chart:
Job 1 - Operation 4: Starts at 237 and ends at 277
Job 2 - Operation 2: Starts at 167 and ends at 237
Job 3 - Operation 1: Starts at 82 and ends at 167
Job 4 - Operation 5: Starts at 453 and ends at 483
Job 5 - Operation 5: Starts at 483 and ends at 554
Job 6 - Operation 1: Starts at 0 and ends at 8
Job 7 - Operation 10: Starts at 844 and ends at 917
Job 8 - Operation 9: Starts at 726 and ends at 767
Job 9 - Operation 4: Starts at 277 and ends at 289
Job 10 - Operation 2: Starts at 21 and ends at 82
-----------------------------------------
Machine 4 Gantt Chart:
Job 1 - Operation 6: Starts at 387 and ends at 424
Job 2 - Operation 9: Starts at 667 and ends at 722
Job 3 - Operation 4: Starts at 363 and ends at 387
Job 4 - Operation 7: Starts at 624 and ends at 662
Job 5 - Operation 6: Starts at 554 and ends at 604
Job 6 - Operation 3: Starts at 60 and ends at 118
Job 7 - Operation 2: Starts at 186 and ends at 278
Job 8 - Operation 3: Starts at 278 and ends at 363
Job 9 - Operation 1: Starts at 0 and ends at 60
Job 10 - Operation 3: Starts at 118 and ends at 186
-----------------------------------------
Machine 5 Gantt Chart:
Job 1 - Operation 3: Starts at 150 and ends at 205
Job 2 - Operation 4: Starts at 302 and ends at 366
Job 3 - Operation 7: Starts at 681 and ends at 770
Job 4 - Operation 1: Starts at 0 and ends at 80
Job 5 - Operation 3: Starts at 205 and ends at 293
Job 6 - Operation 9: Starts at 867 and ends at 921
Job 7 - Operation 1: Starts at 80 and ends at 150
Job 8 - Operation 4: Starts at 366 and ends at 418
Job 9 - Operation 7: Starts at 418 and ends at 511
Job 10 - Operation 8: Starts at 511 and ends at 610
-----------------------------------------
Machine 6 Gantt Chart:
Job 1 - Operation 8: Starts at 481 and ends at 500
Job 2 - Operation 6: Starts at 500 and ends at 565
Job 3 - Operation 2: Starts at 167 and ends at 204
Job 4 - Operation 6: Starts at 565 and ends at 624
Job 5 - Operation 9: Starts at 795 and ends at 851
Job 6 - Operation 4: Starts at 230 and ends at 307
Job 7 - Operation 4: Starts at 394 and ends at 481
Job 8 - Operation 10: Starts at 851 and ends at 907
Job 9 - Operation 6: Starts at 307 and ends at 329
Job 10 - Operation 4: Starts at 204 and ends at 230
-----------------------------------------
Machine 7 Gantt Chart:
Job 1 - Operation 1: Starts at 0 and ends at 9
Job 2 - Operation 10: Starts at 722 and ends at 737
Job 3 - Operation 6: Starts at 598 and ends at 681
Job 4 - Operation 2: Starts at 312 and ends at 389
Job 5 - Operation 2: Starts at 112 and ends at 152
Job 6 - Operation 2: Starts at 9 and ends at 18
Job 7 - Operation 5: Starts at 499 and ends at 598
Job 8 - Operation 5: Starts at 418 and ends at 499
Job 9 - Operation 10: Starts at 789 and ends at 816
Job 10 - Operation 5: Starts at 230 and ends at 312
-----------------------------------------
Machine 8 Gantt Chart:
Job 1 - Operation 10: Starts at 625 and ends at 665
Job 2 - Operation 1: Starts at 0 and ends at 21
Job 3 - Operation 9: Starts at 826 and ends at 910
Job 4 - Operation 3: Starts at 389 and ends at 445
Job 5 - Operation 10: Starts at 910 and ends at 917
Job 6 - Operation 10: Starts at 921 and ends at 957
Job 7 - Operation 6: Starts at 598 and ends at 625
Job 8 - Operation 2: Starts at 185 and ends at 277
Job 9 - Operation 9: Starts at 720 and ends at 789
Job 10 - Operation 9: Starts at 789 and ends at 822
-----------------------------------------
Machine 9 Gantt Chart:
Job 1 - Operation 5: Starts at 277 and ends at 309
Job 2 - Operation 7: Starts at 565 and ends at 590
Job 3 - Operation 8: Starts at 795 and ends at 826
Job 4 - Operation 10: Starts at 857 and ends at 954
Job 5 - Operation 8: Starts at 715 and ends at 795
Job 6 - Operation 6: Starts at 440 and ends at 536
Job 7 - Operation 7: Starts at 629 and ends at 715
Job 8 - Operation 7: Starts at 590 and ends at 629
Job 9 - Operation 2: Starts at 60 and ends at 105
Job 10 - Operation 7: Starts at 383 and ends at 427
-----------------------------------------
Machine 10 Gantt Chart:
Job 1 - Operation 9: Starts at 531 and ends at 612
Job 2 - Operation 3: Starts at 237 and ends at 302
Job 3 - Operation 10: Starts at 910 and ends at 939
Job 4 - Operation 9: Starts at 816 and ends at 857
Job 5 - Operation 7: Starts at 612 and ends at 671
Job 6 - Operation 8: Starts at 857 and ends at 867
Job 7 - Operation 8: Starts at 720 and ends at 816
Job 8 - Operation 6: Starts at 499 and ends at 531
Job 9 - Operation 8: Starts at 671 and ends at 720
Job 10 - Operation 6: Starts at 312 and ends at 383
-----------------------------------------
