Machine 1 Gantt Chart:
Job 1 - Operation 2: Starts at 249 and ends at 336
Job 2 - Operation 3: Starts at 104 and ends at 152
Job 3 - Operation 4: Starts at 152 and ends at 249
Job 4 - Operation 1: Starts at 0 and ends at 59
Job 5 - Operation 5: Starts at 565 and ends at 593
Job 6 - Operation 2: Starts at 59 and ends at 104
Job 7 - Operation 1: Starts at 336 and ends at 389
Job 8 - Operation 5: Starts at 389 and ends at 427
Job 9 - Operation 4: Starts at 517 and ends at 565
Job 10 - Operation 3: Starts at 427 and ends at 517
-----------------------------------------
Machine 2 Gantt Chart:
Job 1 - Operation 1: Starts at 46 and ends at 118
Job 2 - Operation 5: Starts at 278 and ends at 332
Job 3 - Operation 1: Starts at 0 and ends at 46
Job 4 - Operation 4: Starts at 497 and ends at 531
Job 5 - Operation 4: Starts at 531 and ends at 555
Job 6 - Operation 4: Starts at 192 and ends at 270
Job 7 - Operation 3: Starts at 460 and ends at 497
Job 8 - Operation 4: Starts at 137 and ends at 192
Job 9 - Operation 3: Starts at 332 and ends at 372
Job 10 - Operation 5: Starts at 555 and ends at 578
-----------------------------------------
Machine 3 Gantt Chart:
Job 1 - Operation 4: Starts at 434 and ends at 500
Job 2 - Operation 4: Starts at 239 and ends at 278
Job 3 - Operation 3: Starts at 104 and ends at 125
Job 4 - Operation 5: Starts at 538 and ends at 575
Job 5 - Operation 2: Starts at 278 and ends at 351
Job 6 - Operation 5: Starts at 351 and ends at 434
Job 7 - Operation 5: Starts at 526 and ends at 538
Job 8 - Operation 2: Starts at 17 and ends at 104
Job 9 - Operation 1: Starts at 125 and ends at 174
Job 10 - Operation 1: Starts at 174 and ends at 239
-----------------------------------------
Machine 4 Gantt Chart:
Job 1 - Operation 5: Starts at 500 and ends at 560
Job 2 - Operation 2: Starts at 28 and ends at 63
Job 3 - Operation 2: Starts at 63 and ends at 83
Job 4 - Operation 2: Starts at 137 and ends at 156
Job 5 - Operation 3: Starts at 460 and ends at 485
Job 6 - Operation 1: Starts at 0 and ends at 28
Job 7 - Operation 2: Starts at 389 and ends at 460
Job 8 - Operation 3: Starts at 104 and ends at 137
Job 9 - Operation 2: Starts at 174 and ends at 257
Job 10 - Operation 2: Starts at 257 and ends at 274
-----------------------------------------
Machine 5 Gantt Chart:
Job 1 - Operation 3: Starts at 336 and ends at 431
Job 2 - Operation 1: Starts at 0 and ends at 5
Job 3 - Operation 5: Starts at 249 and ends at 304
Job 4 - Operation 3: Starts at 431 and ends at 477
Job 5 - Operation 1: Starts at 17 and ends at 40
Job 6 - Operation 3: Starts at 104 and ends at 109
Job 7 - Operation 4: Starts at 497 and ends at 526
Job 8 - Operation 1: Starts at 5 and ends at 17
Job 9 - Operation 5: Starts at 565 and ends at 572
Job 10 - Operation 4: Starts at 526 and ends at 553
-----------------------------------------
